Division,WeightClassKg,Place,Name,Team,BodyweightKg,Best3SquatKg,Best3BenchKg,Best3DeadliftKg,TotalKg,Equipment,Event,Sex,BirthDate
Boys,51.71,1,Gabriel Morse,Keller Central,50.8,117.93,65.77,95.25,278.96,Unlimited,SBD,M,
Boys,51.71,2,Alexis Yakobo,Fort Worth Western Hills,46.27,83.91,43.09,108.86,235.87,Unlimited,SBD,M,
Boys,55.79,1,William Sgroi,Keller Timber Creek,55.52,142.88,72.57,138.35,353.8,Unlimited,SBD,M,
Boys,55.79,2,Eddie Cole,Keller Central,55.79,131.54,72.57,102.06,306.17,Unlimited,SBD,M,
Boys,55.79,3,Connor McWilliams,Keller Timber Creek,55.7,102.06,61.23,127.01,290.3,Unlimited,SBD,M,
Boys,55.79,4,Aiden Garza,Keller,55.2,90.72,52.16,88.45,231.33,Unlimited,SBD,M,
Boys,59.87,1,Phillip Locke,Keller Central,59.87,147.42,61.23,138.35,347,Unlimited,SBD,M,
Boys,59.87,2,Orylyn Crockett,Fort Worth Western Hills,59.42,106.59,70.31,136.08,312.98,Unlimited,SBD,M,
Boys,59.87,3,Alex Dragon,Keller Timber Creek,58.51,104.33,63.5,117.93,285.76,Unlimited,SBD,M,
Boys,67.13,1,Nathan Giddens,Keller Timber Creek,66.86,195.04,117.93,204.12,517.1,Unlimited,SBD,M,
Boys,67.13,2,Nick Luangrath,Keller Central,65.77,176.9,120.2,165.56,462.66,Unlimited,SBD,M,
Boys,67.13,3,Kendreich Scheving,Keller Fossil Ridge,65.77,147.42,115.67,174.63,437.72,Unlimited,SBD,M,
Boys,67.13,4,Dustin Ford,Keller Central,66.68,183.7,102.06,151.95,437.72,Unlimited,SBD,M,
Boys,67.13,5,Devon Marceron,Keller Central,66.22,147.42,102.06,163.29,412.77,Unlimited,SBD,M,
Boys,67.13,6,Guy Gonzalez,Keller,61.87,161.03,86.18,161.03,408.23,Unlimited,SBD,M,
Boys,67.13,7,Ivan Dominguez,Keller Fossil Ridge,67.13,142.88,83.91,147.42,374.21,Unlimited,SBD,M,
Boys,67.13,8,Kaleb Pozzani,Keller Timber Creek,63.14,147.42,77.11,129.27,353.8,Unlimited,SBD,M,
Boys,67.13,9,Braeden Garza,Keller Timber Creek,67.04,122.47,83.91,138.35,344.73,Unlimited,SBD,M,
Boys,67.13,10,Jayden Nguyen,Keller Fossil Ridge,65.77,129.27,70.31,133.81,333.39,Unlimited,SBD,M,
Boys,67.13,11,Ian Schaefer,Keller Fossil Ridge,66.22,113.4,83.91,124.74,322.05,Unlimited,SBD,M,
Boys,67.13,12,Cole Andes,Keller Timber Creek,67.04,120.2,63.5,138.35,322.05,Unlimited,SBD,M,
Boys,67.13,13,Anderson Starr,Keller,63.41,111.13,61.23,104.33,276.69,Unlimited,SBD,M,
Boys,67.13,DQ,Javares Hamilton,Fort Worth Western Hills,66.68,,,,,Unlimited,SBD,M,
Boys,67.13,DQ,Jerry Gray,Keller Fossil Ridge,66.68,45.36,34.02,83.91,,Unlimited,SBD,M,
Boys,74.84,1,Ben Haines,Keller Central,74.75,210.92,111.13,199.58,521.63,Unlimited,SBD,M,
Boys,74.84,2,Daniel Reynolds,Keller,72.71,208.65,106.59,204.12,519.36,Unlimited,SBD,M,
Boys,74.84,3,Christian Perez,Keller Central,74.84,192.78,124.74,197.31,514.83,Unlimited,SBD,M,
Boys,74.84,4,Alexander Anderson,Keller Central,70.76,147.42,111.13,170.1,428.64,Unlimited,SBD,M,
Boys,74.84,5,Logan Deal,Keller,69.31,151.95,102.06,156.49,410.5,Unlimited,SBD,M,
Boys,74.84,6,Dejuan White,Keller Timber Creek,67.31,104.33,65.77,133.81,303.91,Unlimited,SBD,M,
Boys,74.84,7,Logan Pruitt,Keller Fossil Ridge,74.84,120.2,49.9,133.81,303.91,Unlimited,SBD,M,
Boys,74.84,8,Edghan Hekamanu,Keller Fossil Ridge,73.48,74.84,47.63,79.38,201.85,Unlimited,SBD,M,
Boys,74.84,DQ,Tony Hoagland,Keller Timber Creek,70.94,142.88,79.38,142.88,,Unlimited,SBD,M,
Boys,74.84,DQ,Xavier Lee,Keller Timber Creek,74.84,136.08,83.91,142.88,,Unlimited,SBD,M,
Boys,74.84,DQ,Jaxon Peters,Keller,74.84,138.35,95.25,147.42,,Unlimited,SBD,M,
Boys,74.84,DQ,Javier Pierre,Keller,73.98,142.88,99.79,156.49,,Unlimited,SBD,M,
Boys,74.84,DQ,Nicholas Muegge,Keller Central,74.39,158.76,90.72,190.51,,Unlimited,SBD,M,
Boys,74.84,DQ,Chance David,Keller Central,73.48,124.74,92.99,158.76,,Unlimited,SBD,M,
Boys,74.84,DQ,Nicholas Krause,Keller Central,74.39,199.58,108.86,158.76,,Unlimited,SBD,M,
Boys,82.1,1,Brody Craft,Keller Central,77.11,213.19,142.88,195.04,551.11,Unlimited,SBD,M,
Boys,82.1,2,Isaac Maldonado,Keller Central,80.74,197.31,122.47,183.7,503.49,Unlimited,SBD,M,
Boys,82.1,3,Louis Huerta,Keller,78.88,170.1,106.59,195.04,471.74,Unlimited,SBD,M,
Boys,82.1,4,Pierce Solodow,Keller,78.29,183.7,106.59,167.83,458.13,Unlimited,SBD,M,
Boys,82.1,5,Winston Ayesu,Keller Fossil Ridge,81.19,179.17,104.33,149.69,433.18,Unlimited,SBD,M,
Boys,82.1,6,William Dedic,Keller,81.65,156.49,95.25,174.63,426.38,Unlimited,SBD,M,
Boys,82.1,7,William Siripanyo,Keller Fossil Ridge,79.38,174.63,102.06,142.88,419.57,Unlimited,SBD,M,
Boys,82.1,8,Angelo Tucker,Keller Timber Creek,80.83,161.03,88.45,163.29,412.77,Unlimited,SBD,M,
Boys,82.1,DQ,Anthony Torres,Keller Central,77.56,158.76,97.52,192.78,,Unlimited,SBD,M,
Boys,89.81,1,Gabe DeKok,Keller,88.59,224.53,156.49,231.33,612.35,Unlimited,SBD,M,
Boys,89.81,2,Noah Read,Keller,87.95,188.24,113.4,188.24,489.88,Unlimited,SBD,M,
Boys,89.81,3,Dimas Ordonez,Keller Timber Creek,88.9,188.24,102.06,183.7,474,Unlimited,SBD,M,
Boys,89.81,4,Josh Raja,Fort Worth Western Hills,89.36,167.83,111.13,158.76,437.72,Unlimited,SBD,M,
Boys,89.81,5,Patrick Broughton,Fort Worth Western Hills,86.18,106.59,61.23,136.08,303.91,Unlimited,SBD,M,
Boys,99.79,1,Jaden Stuard,Keller Fossil Ridge,93.89,190.51,133.81,192.78,517.1,Unlimited,SBD,M,
Boys,99.79,2,Ronnie Edwards,Keller Timber Creek,93.08,183.7,106.59,183.7,474,Unlimited,SBD,M,
Boys,99.79,3,Mohammed Monsour,Keller,93.71,179.17,97.52,172.37,449.06,Unlimited,SBD,M,
Boys,99.79,4,Daniel Aduh,Keller Fossil Ridge,90.72,158.76,102.06,176.9,437.72,Unlimited,SBD,M,
Boys,99.79,5,Sam Crane,Keller,94.89,145.15,95.25,176.9,417.3,Unlimited,SBD,M,
Boys,99.79,6,Josh Mareth,Keller Timber Creek,90.81,142.88,90.72,174.63,408.23,Unlimited,SBD,M,
Boys,99.79,7,Collin Reed,Keller Central,99.79,142.88,77.11,127.01,347,Unlimited,SBD,M,
Boys,99.79,DQ,Anden Castle,Keller Timber Creek,95.35,219.99,183.7,224.53,,Unlimited,SBD,M,
Boys,109.77,1,Dreyton Nelson,Keller Fossil Ridge,104.33,233.6,158.76,226.8,619.15,Unlimited,SBD,M,
Boys,109.77,2,Ethan Starr,Keller,104.64,231.33,136.08,219.99,587.4,Unlimited,SBD,M,
Boys,109.77,3,Carlos Gonzalez,Keller Fossil Ridge,108.86,226.8,124.74,170.1,521.63,Unlimited,SBD,M,
Boys,109.77,4,Jamarcus Molina,Keller Fossil Ridge,103.19,183.7,113.4,183.7,480.81,Unlimited,SBD,M,
Boys,109.77,5,Luke Williams,Keller,106.37,185.97,99.79,185.97,471.74,Unlimited,SBD,M,
Boys,109.77,6,Ethan Vasquez,Keller Fossil Ridge,104.33,158.76,70.31,145.15,374.21,Unlimited,SBD,M,
Boys,109.77,7,William Van Heusen,Keller Timber Creek,100.24,115.67,77.11,124.74,317.51,Unlimited,SBD,M,
Boys,124.74,1,Will Scalf,Keller,110.9,199.58,131.54,192.78,523.9,Unlimited,SBD,M,
Boys,124.74,2,Ian Davidson,Keller Central,124.74,163.29,129.27,185.97,478.54,Unlimited,SBD,M,
Boys,124.74,3,Shaun Linnear,Keller,123.97,170.1,108.86,163.29,442.25,Unlimited,SBD,M,
Boys,124.74,4,Bear Smith,Keller Timber Creek,115.12,163.29,77.11,149.69,390.09,Unlimited,SBD,M,
Boys,139.71,1,Edward Zavala,Keller Fossil Ridge,124.83,317.51,163.29,226.8,707.6,Unlimited,SBD,M,
Boys,139.71,2,Jacob Gearhart,Keller Fossil Ridge,138.35,142.88,111.13,154.22,408.23,Unlimited,SBD,M,
Boys,139.71,3,Zayne Allison,Keller Timber Creek,133.81,136.08,113.4,136.08,385.55,Unlimited,SBD,M,
