Place,Name,Sex,BirthDate,Age,Country,Equipment,Division,BodyweightLbs,WeightClassLbs,Squat1Lbs,Squat2Lbs,Squat3Lbs,Best3SquatLbs,Bench1Lbs,Bench2Lbs,Bench3Lbs,Best3BenchLbs,Deadlift1Lbs,Deadlift2Lbs,Deadlift3Lbs,Best3DeadliftLbs,TotalLbs,Event
1,Erin Sullivan,F,,51,USA,Bare,M50-54,200,220,150,160,165,165,65,85,95,95,200,225,250,250,510,SBD
1,Ashley Styles,F,,27,,Bare,Open,276,242+,150,175,200,200,135,155,180,180,225,250,275,275,655,SBD
1,Jennifer Gross,F,1974-09-18,50,,Wraps,M50-54,158.2,165,285,300,315,315,165,175,-185,175,285,305,-330,305,795,SBD
1,Kimberly Graham,F,1993-11-30,30,USA,Sleeves,Open,130.4,132,265,285,-300,285,165,-175,-175,165,295,-315,-315,295,745,SBD
1,Jessica Ervin,F,1990-12-13,33,USA,Sleeves,Open,146.6,148,280,-295,295,295,150,-160,-160,150,315,330,345,345,790,SBD
1,Jennifer Gross,F,1974-09-18,50,,Wraps,Open,158.2,165,285,300,315,315,165,175,-185,175,285,305,-330,305,795,SBD
2,Miriam Oshiro,F,1986-05-21,38,USA,Sleeves,Open,161.8,165,250,-280,290,290,135,160,170,170,275,305,-335,305,765,SBD
1,Lexi Maxwell,F,1999-06-29,25,USA,Wraps,Open,198,198,335,365,390,390,175,195,200,200,335,355,-375,355,945,SBD
1,Jackie Skunda,F,1984-05-22,40,USA,Multi-ply,Open,200.6,220,475,500,525,525,285,305,315,315,375,-400,-400,375,1215,SBD
1,Karen Clare,F,,39,USA,Bare,S35-39,162,165,,,,,65,85,95,95,115,135,155,155,250,BD
1,Hunter Kennedy,M,2007-07-07,17,USA,Bare,T16-17,141,148,260,-290,305,305,175,190,-205,190,350,-380,-380,350,845,SBD
1,Will Yaekle,M,1983-04-25,41,USA,Sleeves,M40-44,215.2,220,350,360,-375,360,230,240,-250,240,350,375,405,405,1005,SBD
1,Zach Fisher,M,1971-04-10,53,USA,Sleeves,M50-54,174,181,325,340,365,365,135,,,135,350,380,405,405,905,SBD
1,Bruce Barry,M,1952-08-01,72,USA,Sleeves,M70-74,211.2,220,450,-510,-510,450,175,,,175,150,,,150,775,SBD
1,Sean Wehrle,M,1991-09-12,33,USA,Wraps,Open,132,132,275,305,315,315,185,205,215,215,375,-420,-420,375,905,SBD
1,Luke Lewis,M,2003-01-31,21,USA,Wraps,Open,148.4,148,385,435,465,465,235,255,-275,255,365,410,-415,410,1130,SBD
1,Juan Martinez,M,1991-12-02,32,USA,Wraps,Open,198,198,620,660,700,700,430,450,-470,450,555,600,,600,1750,SBD
2,Dan Sutton,M,1993-05-12,31,USA,Wraps,Open,197.2,198,540,580,-605,580,355,385,405,405,500,545,585,585,1570,SBD
3,Jacob Shawley,M,1992-11-25,31,USA,Wraps,Open,193.6,198,565,600,-630,600,300,325,340,340,570,600,620,620,1560,SBD
4,Patrick Burgett,M,1997-04-10,27,,Sleeves,Open,198.4,198,365,385,405,405,295,305,-315,305,-555,555,575,575,1285,SBD
1,Sam Schwab,M,1992-11-04,32,USA,Wraps,Open,217.6,220,565,585,605,605,355,375,385,385,665,-705,-705,665,1655,SBD
2,Dakoda Smith,M,,26,USA,Sleeves,Open,220,220,455,485,-500,485,375,405,415,415,555,600,625,625,1525,SBD
3,Jordan Kusma,M,1992-05-16,32,USA,Wraps,Open,207.6,220,-550,570,585,585,340,360,-370,360,500,535,-555,535,1480,SBD
4,Dan DeLellis,M,1993-06-12,31,USA,Sleeves,Open,216.8,220,490,525,-555,525,300,325,335,335,545,585,605,605,1465,SBD
5,Aaron D'Ambrosio,M,1996-11-21,28,USA,Sleeves,Open,218,220,-330,350,365,365,250,265,280,280,405,445,480,480,1125,SBD
6,Terrence Sheridan,M,1999-06-28,25,USA,Sleeves,Open,206.2,220,-345,345,365,365,235,250,265,265,385,405,425,425,1055,SBD
1,Trenden Fox,M,,28,USA,Wraps,Open,226,242,500,550,-585,550,-325,355,375,375,525,575,600,600,1525,SBD
1,Noah Miller,M,1996-11-18,28,USA,Wraps,Open,244,275,645,-690,,645,370,-400,400,400,550,605,645,645,1690,SBD
2,Ty Gaffney,M,1999-10-13,25,USA,Wraps,Open,274.2,275,575,615,630,630,355,385,400,400,515,545,570,570,1600,SBD
3,Julian Young,M,1992-03-09,32,USA,Sleeves,Open,272.4,275,365,385,405,405,200,225,250,250,400,445,470,470,1125,SBD
1,Jared VanVliet,M,,27,USA,Sleeves,Open,281,308,595,620,650,650,425,445,465,465,660,685,705,705,1820,SBD
1,George Paesano,M,2000-06-08,24,USA,Sleeves,Open,328.8,308+,555,575,600,600,350,-370,,350,625,655,-680,655,1605,SBD
1,Austin Taylor #3,M,1988-12-16,35,USA,Wraps,S35-39,236,242,555,595,630,630,395,420,445,445,530,575,610,610,1685,SBD
1,Neisen Taylor,M,2005-05-17,19,USA,Wraps,T18-19,179.6,181,510,535,-550,535,290,310,315,315,475,505,-515,505,1355,SBD
1,Lance Jelen,M,2005-01-10,19,USA,Wraps,T18-19,232.8,242,680,720,750,750,420,445,465,465,615,640,660,660,1875,SBD
DQ,Bruce Barry,M,1952-08-01,72,USA,Multi-ply,M70-74,211.2,220,-600,-600,,,,,,,,,,,,SBD
1,Jonathan Harder,M,1978-09-28,46,,Single-ply,Open,197.6,198,660,700,-725,700,410,-440,-460,410,630,660,,660,1770,SBD
1,Kyle Hoy,M,1993-03-01,31,USA,Multi-ply,Open,270.6,275,875,950,-1000,950,600,645,-675,645,715,765,805,805,2400,SBD
2,Pat Hakola,M,1979-06-26,45,USA,Multi-ply,Open,273.4,275,775,820,850,850,690,710,730,730,675,-720,720,720,2300,SBD
1,Alexander August,M,1999-03-14,25,USA,Unlimited,Open,162,165,455,500,525,525,315,340,355,355,455,500,520,520,1400,SBD
1,Josh Layer,M,1986-12-24,37,USA,Unlimited,S35-39,219.2,220,600,660,700,700,485,510,-530,510,550,-590,-590,550,1760,SBD
1,Quri Hickman,M,1997-09-12,27,USA,Bare,Open,271.6,275,,,,,135,,,135,650,-705,-705,650,785,BD
1,Matthew Walker #4,M,1991-09-24,33,USA,Sleeves,Open,234,242,,,,,210,225,240,240,495,520,-550,520,760,BD
1,Matthew Staub,M,1994-11-10,30,USA,Bare,Open,223.4,242,,,,,405,-430,430,430,,,,,430,B
1,Cole Graham,M,2001-10-04,23,,Bare,Open,338.2,308+,,,,,375,400,420,420,,,,,420,B
1,Dan Stellencamp,M,,,,Multi-ply,Open,305,308,,,,,-770,800,835,835,,,,,835,B
1,Tyler Magee,M,1994-04-19,30,USA,Unlimited,Open,238,242,,,,,-720,760,800,800,,,,,800,B
