Division,WeightClassKg,Place,Name,Team,BodyweightKg,Best3SquatKg,Best3BenchKg,Best3DeadliftKg,TotalKg,Equipment,Event,Sex
Boys,51.71,1,Alan Landazuri,Quinlan Ford,51.62,115.67,77.11,136.08,328.85,Single-ply,SBD,M
Boys,51.71,2,Steve Cantu,Brownsboro,50.89,122.47,74.84,127.01,324.32,Single-ply,SBD,M
Boys,51.71,3,Jeremy Griffin,Quinlan Ford,51.71,90.72,56.7,124.74,272.16,Single-ply,SBD,M
Boys,51.71,4,Jacob Semler,Sulphur Springs,50.44,102.06,52.16,113.4,267.62,Single-ply,SBD,M
Boys,51.71,5,Robert Morin,Wills Point,46.45,68.04,34.02,72.57,174.63,Single-ply,SBD,M
Boys,55.79,1,Jesus Barrientos,Brownsboro,54.61,161.03,92.99,172.37,426.38,Single-ply,SBD,M
Boys,55.79,2,Bryan Rodriguez,Greenville,53.98,165.56,83.91,156.49,405.97,Single-ply,SBD,M
Boys,55.79,3,Oscar Yanez,Sulphur Springs,53.89,136.08,65.77,136.08,337.93,Single-ply,SBD,M
Boys,55.79,DQ,Stephen Smith,Wills Point,55.7,,,,,Single-ply,SBD,M
Boys,59.87,1,Ethan Adair,Lone Oak,59.15,161.03,90.72,149.69,401.43,Single-ply,SBD,M
Boys,59.87,2,Chris Counts,Lone Oak,56.7,145.15,74.84,149.69,369.68,Single-ply,SBD,M
Boys,59.87,3,Kasen Haynes,Lone Oak,56.34,147.42,81.65,129.27,358.34,Single-ply,SBD,M
Boys,59.87,4,Darwin Acosta,Quinlan Ford,58.69,136.08,74.84,147.42,358.34,Single-ply,SBD,M
Boys,67.13,1,Garrett Davis,Quinlan Ford,66.5,208.65,122.47,192.78,523.9,Single-ply,SBD,M
Boys,67.13,2,Christian Garcia,Emory Rains,67.04,197.31,97.52,197.31,492.15,Single-ply,SBD,M
Boys,67.13,3,Cole Hahn,Lone Oak,65.32,188.24,113.4,176.9,478.54,Single-ply,SBD,M
Boys,67.13,4,Jesse Carrillo,Sulphur Springs,66.41,174.63,120.2,165.56,460.4,Single-ply,SBD,M
Boys,67.13,5,Taylor Vandergriff,Brownsboro,64.77,170.1,79.38,204.12,453.59,Single-ply,SBD,M
Boys,67.13,6,Alejandro Vasquez,Greenville,63.05,183.7,92.99,165.56,442.25,Single-ply,SBD,M
Boys,67.13,7,Austin Caldwell,Wills Point,64.77,167.83,106.59,163.29,437.72,Single-ply,SBD,M
Boys,67.13,8,Kyle Stewart,Greenville,64.14,161.03,95.25,161.03,417.3,Single-ply,SBD,M
Boys,67.13,9,Ethan Forte,Lone Oak,66.59,172.37,70.31,172.37,415.04,Single-ply,SBD,M
Boys,67.13,10,Ryan Manning,Marshall,67.13,165.56,83.91,158.76,408.23,Single-ply,SBD,M
Boys,67.13,11,Jose Acosta,Quinlan Ford,66.13,149.69,99.79,154.22,403.7,Single-ply,SBD,M
Boys,67.13,12,Logan McCurley,Brownsboro,65.86,154.22,88.45,151.95,394.63,Single-ply,SBD,M
Boys,67.13,13,Ricardo Torres,Sulphur Springs,64.5,136.08,99.79,154.22,390.09,Single-ply,SBD,M
Boys,67.13,14,Juan Muñoz,Quinlan Ford,64.68,147.42,77.11,158.76,383.29,Single-ply,SBD,M
Boys,67.13,15,Thezak Wright,Lone Oak,61.33,127.01,88.45,165.56,381.02,Single-ply,SBD,M
Boys,67.13,16,Luis Williams,Harleton,61.96,138.35,88.45,147.42,374.21,Single-ply,SBD,M
Boys,67.13,17,Michael Fry #3,Quinlan Ford,63.05,136.08,63.5,165.56,365.14,Single-ply,SBD,M
Boys,67.13,18,Codie Townsend,Quinlan Ford,60.6,147.42,56.7,142.88,347,Single-ply,SBD,M
Boys,67.13,19,DeAndre Doss,Diana New Diana,66.22,140.61,72.57,124.74,337.93,Single-ply,SBD,M
Boys,67.13,20,Sam Wilks,Sulphur Springs,62.87,136.08,56.7,136.08,328.85,Single-ply,SBD,M
Boys,67.13,21,Trayson Wright,Overton,65.95,102.06,72.57,136.08,310.71,Single-ply,SBD,M
Boys,67.13,22,Clay Floyd,Harleton,64.59,111.13,74.84,117.93,303.91,Single-ply,SBD,M
Boys,67.13,DQ,Camden Fuller,Sulphur Springs,66.77,142.88,,,,Single-ply,SBD,M
Boys,67.13,DQ,Enrique Torres,Sulphur Springs,67.13,,,,,Single-ply,SBD,M
Boys,74.84,1,Harley Sanders,Brownsboro,73.21,197.31,165.56,197.31,560.19,Single-ply,SBD,M
Boys,74.84,2,Marcos Molina,Brownsboro,73.84,235.87,117.93,197.31,551.11,Single-ply,SBD,M
Boys,74.84,3,Zavion Jackson,Greenville,73.66,226.8,113.4,183.7,523.9,Single-ply,SBD,M
Boys,74.84,4,Jesus Mendez,Emory Rains,72.67,181.44,111.13,192.78,485.34,Single-ply,SBD,M
Boys,74.84,5,Moose Knisley,Wills Point,74.12,167.83,108.86,181.44,458.13,Single-ply,SBD,M
Boys,74.84,6,Aaron Carrillo,Quinlan Ford,71.94,174.63,102.06,170.1,446.79,Single-ply,SBD,M
Boys,74.84,7,Jacky Jackson,Lone Oak,71.67,170.1,83.91,188.24,442.25,Single-ply,SBD,M
Boys,74.84,8,Cole Morris,Lone Oak,71.94,174.63,104.33,163.29,442.25,Single-ply,SBD,M
Boys,74.84,9,Johnny Pope,Brownsboro,70.4,183.7,88.45,165.56,437.72,Single-ply,SBD,M
Boys,74.84,10,Jerome Martin,Quinlan Ford,74.3,167.83,83.91,185.97,437.72,Single-ply,SBD,M
Boys,74.84,11,De'Marcus Williams,Marshall,67.49,165.56,79.38,181.44,426.38,Single-ply,SBD,M
Boys,74.84,12,Kaleb Stevens,Brownsboro,70.4,167.83,90.72,167.83,426.38,Single-ply,SBD,M
Boys,74.84,13,Zach Jones,Brownsboro,71.58,158.76,86.18,181.44,426.38,Single-ply,SBD,M
Boys,74.84,14,Jaden Janaway,Sulphur Springs,70.49,158.76,68.04,181.44,408.23,Single-ply,SBD,M
Boys,74.84,15,Kaleb Hernandez,Brownsboro,74.12,145.15,74.84,149.69,369.68,Single-ply,SBD,M
Boys,74.84,16,Matthew Wilson,Harleton,74.48,120.2,68.04,124.74,312.98,Single-ply,SBD,M
Boys,82.1,1,Bobby Posey,Brownsboro,80.01,254.01,151.95,235.87,641.83,Single-ply,SBD,M
Boys,82.1,2,Carson Bridges,Sulphur Springs,79.74,231.33,124.74,249.48,605.55,Single-ply,SBD,M
Boys,82.1,3,Joe McCallum,Lone Oak,76.66,240.4,120.2,219.99,580.6,Single-ply,SBD,M
Boys,82.1,4,Quintarius Raibon,Brownsboro,82.01,238.14,129.27,201.85,569.26,Single-ply,SBD,M
Boys,82.1,5,Zane Freeman,Diana New Diana,80.92,206.38,127.01,213.19,546.58,Single-ply,SBD,M
Boys,82.1,6,Gian Carlos,Greenville,80.1,226.8,120.2,195.04,542.04,Single-ply,SBD,M
Boys,82.1,7,Gage Mauch,Lone Oak,81.74,197.31,111.13,190.51,498.95,Single-ply,SBD,M
Boys,82.1,8,Colton Gable,Emory Rains,79.83,199.58,115.67,174.63,489.88,Single-ply,SBD,M
Boys,82.1,9,Ty Watkins,Lone Oak,80.74,188.24,102.06,188.24,478.54,Single-ply,SBD,M
Boys,82.1,10,Caden Hoefar,Lone Oak,81.74,185.97,111.13,165.56,462.66,Single-ply,SBD,M
Boys,82.1,11,Donavon Throneberry,Emory Rains,78.11,172.37,106.59,165.56,444.52,Single-ply,SBD,M
Boys,82.1,12,Ryan Carrillo #2,Sulphur Springs,77.56,170.1,108.86,147.42,426.38,Single-ply,SBD,M
Boys,82.1,13,Jayden Wilson,Diana New Diana,82.1,154.22,104.33,147.42,405.97,Single-ply,SBD,M
Boys,82.1,14,Wyatt Smithson,Sulphur Springs,76.2,142.88,81.65,158.76,383.29,Single-ply,SBD,M
Boys,89.81,1,Tucker Momon,Greenville,87.63,254.01,124.74,256.28,635.03,Single-ply,SBD,M
Boys,89.81,2,George Greenway,Sulphur Springs,84.19,247.21,117.93,233.6,598.74,Single-ply,SBD,M
Boys,89.81,3,Caden Davis,Sulphur Springs,83.19,204.12,136.08,204.12,544.31,Single-ply,SBD,M
Boys,89.81,4,Jorge López,Quinlan Ford,87.91,190.51,115.67,195.04,501.22,Single-ply,SBD,M
Boys,89.81,5,Dylan Dodson,Diana New Diana,83.01,204.12,111.13,183.7,498.95,Single-ply,SBD,M
Boys,89.81,6,Christian Tristan,Brownsboro,86.91,204.12,113.4,181.44,498.95,Single-ply,SBD,M
Boys,89.81,7,Tyler Williams,Lone Oak,85.28,195.04,102.06,176.9,474,Single-ply,SBD,M
Boys,89.81,8,Ladamian Bailey,Kaufman,88,163.29,104.33,195.04,462.66,Single-ply,SBD,M
Boys,89.81,9,Jayden Salazar,Harleton,83.19,154.22,97.52,181.44,433.18,Single-ply,SBD,M
Boys,89.81,10,Kaiden Roden,Quinlan Ford,84.01,147.42,113.4,170.1,430.91,Single-ply,SBD,M
Boys,89.81,11,Caden Lambert,Diana New Diana,87.27,156.49,92.99,181.44,430.91,Single-ply,SBD,M
Boys,89.81,12,Hunter Grubbs,Brownsboro,86.27,170.1,74.84,179.17,424.11,Single-ply,SBD,M
Boys,89.81,13,Roberto Olvera,Brownsboro,84.01,151.95,74.84,195.04,421.84,Single-ply,SBD,M
Boys,89.81,14,Keylan Easley,Diana New Diana,89.81,133.81,88.45,156.49,378.75,Single-ply,SBD,M
Boys,89.81,15,Garrison Conner,Diana New Diana,82.83,124.74,77.11,149.69,351.53,Single-ply,SBD,M
Boys,89.81,16,Brody Kriegel,Harleton,87.36,147.42,70.31,117.93,335.66,Single-ply,SBD,M
Boys,89.81,DQ,Dakorian Simms,Sulphur Springs,86,170.1,,,,Single-ply,SBD,M
Boys,99.79,1,Simon Rico,Greenville,99.7,265.35,149.69,226.8,641.83,Single-ply,SBD,M
Boys,99.79,2,Noah Sissom,Brownsboro,97.98,215.46,122.47,244.94,582.87,Single-ply,SBD,M
Boys,99.79,3,Kenneth Randall,Kaufman,98.43,226.8,113.4,240.4,580.6,Single-ply,SBD,M
Boys,99.79,4,Nathan Slemmons,Lone Oak,94.53,244.94,127.01,181.44,553.38,Single-ply,SBD,M
Boys,99.79,5,Tyler Magnasco,Lone Oak,99.79,208.65,124.74,181.44,514.83,Single-ply,SBD,M
Boys,99.79,6,Jordan Montalvo,Emory Rains,97.89,192.78,115.67,188.24,496.68,Single-ply,SBD,M
Boys,99.79,7,Chad Maynard,Sulphur Springs,94.98,188.24,106.59,185.97,480.81,Single-ply,SBD,M
Boys,99.79,8,James Hinch,Emory Rains,96.8,183.7,133.81,151.95,469.47,Single-ply,SBD,M
Boys,99.79,9,Bradley Futch,Sulphur Springs,95.8,170.1,106.59,158.76,435.45,Single-ply,SBD,M
Boys,99.79,10,Brittin Pierce,Overton,90.22,142.88,90.72,147.42,381.02,Single-ply,SBD,M
Boys,99.79,11,Levi Hudson,Brownsboro,94.17,151.95,88.45,133.81,374.21,Single-ply,SBD,M
Boys,109.77,1,Oscar Osorio,Greenville,108.59,238.14,154.22,226.8,619.15,Single-ply,SBD,M
Boys,109.77,2,Seth Gammage,Lone Oak,106.23,219.99,124.74,192.78,537.51,Single-ply,SBD,M
Boys,109.77,3,Jaden Luhn,Lone Oak,108.32,201.85,102.06,179.17,483.08,Single-ply,SBD,M
Boys,109.77,4,Brandon James,Quinlan Ford,106.59,174.63,83.91,185.97,444.52,Single-ply,SBD,M
Boys,109.77,5,Derrick Patterson,Lone Oak,105.14,145.15,74.84,147.42,367.41,Single-ply,SBD,M
Boys,109.77,DQ,D'artanian Gomez,Overton,106.23,,65.77,,,Single-ply,SBD,M
Boys,109.77,DQ,Steven Jonaitis,Sulphur Springs,103.51,208.65,,,,Single-ply,SBD,M
Boys,124.74,1,Jimmy Orozco,Brownsboro,119.66,288.03,192.78,222.26,703.07,Single-ply,SBD,M
Boys,124.74,2,Hunter Carter,Quinlan Ford,118.39,240.4,140.61,238.14,619.15,Single-ply,SBD,M
Boys,124.74,3,Juan Martinez,Wills Point,110.77,226.8,136.08,247.21,610.08,Single-ply,SBD,M
Boys,124.74,4,Tony Randle,Greenville,119.39,244.94,133.81,185.97,564.72,Single-ply,SBD,M
Boys,124.74,5,Jacob Gonzales,Wills Point,116.94,226.8,111.13,219.99,557.92,Single-ply,SBD,M
Boys,124.74,6,Wyatt Green,Brownsboro,116.12,210.92,120.2,219.99,551.11,Single-ply,SBD,M
Boys,124.74,7,Nathan Johnson #4,Kaufman,118.12,226.8,108.86,183.7,519.36,Single-ply,SBD,M
Boys,124.74,8,Jacob Hernandez #9,Sulphur Springs,113.4,215.46,102.06,176.9,494.42,Single-ply,SBD,M
Boys,124.74,9,KeJuan Fite,Mineola,114.31,192.78,108.86,174.63,476.27,Single-ply,SBD,M
Boys,124.74,10,Ty Jacobs,Emory Rains,114.31,192.78,120.2,147.42,460.4,Single-ply,SBD,M
Boys,124.74,11,Hayden Buchannan,Emory Rains,118.3,163.29,92.99,151.95,408.23,Single-ply,SBD,M
Boys,124.74,DQ,Billy Pullen,Kaufman,117.48,,,,,Single-ply,SBD,M
Boys,124.74,DQ,Trevon Wright,Overton,120.38,183.7,92.99,,,Single-ply,SBD,M
Boys,124.74+,1,Christian Hood,Marshall,139.16,254.01,136.08,226.8,616.89,Single-ply,SBD,M
Boys,124.74+,2,Houston Jonaitis,Sulphur Springs,167.28,272.16,129.27,192.78,594.21,Single-ply,SBD,M
Boys,124.74+,3,Alfredo Olavide,Sulphur Springs,143.34,199.58,102.06,226.8,528.44,Single-ply,SBD,M
Boys,124.74+,4,Jason Lazaro,Overton,134.44,183.7,113.4,181.44,478.54,Single-ply,SBD,M
Boys,124.74+,5,Nathan Tomerlin,Wills Point,136.62,192.78,92.99,188.24,474,Single-ply,SBD,M
Boys,124.74+,6,Chris Mayes,Wills Point,144.88,181.44,79.38,158.76,419.57,Single-ply,SBD,M
